{
	"info": {
		"_postman_id": "98fe150e-ea73-4576-8b76-e4e55423ccd6",
		"name": "Migration Collection - bypassing",
		"schema": "https://schema.getpostman.com/json/collection/v2.1.0/collection.json",
		"_uid": "1030464-98fe150e-ea73-4576-8b76-e4e55423ccd6"
	},
	"item": [
		{
			"name": "Postman Echo Request (512 KB)",
			"id": "548f371c-ee2a-445b-9e47-c04a44b50709",
			"protocolProfileBehavior": {
				"disableBodyPruning": true
			},
			"request": {
				"method": "GET",
				"header": [],
				"url": {
					"raw": "postman-echo.com/bytes/512/kb",
					"host": [
						"postman-echo",
						"com"
					],
					"path": [
						"bytes",
						"512",
						"kb"
					]
				},
				"description": "Postman Echo request returning 512 KB payload"
			},
			"response": []
		},
		{
			"name": "Postman Echo Request (512 KB)",
			"id": "eb3045d5-f083-44c8-ad28-02d41663cb38",
			"protocolProfileBehavior": {
				"disableBodyPruning": true
			},
			"request": {
				"method": "GET",
				"header": [],
				"url": {
					"raw": "postman-echo.com/bytes/512/kb",
					"host": [
						"postman-echo",
						"com"
					],
					"path": [
						"bytes",
						"512",
						"kb"
					]
				},
				"description": "Postman Echo request returning 512 KB payload"
			},
			"response": []
		}
	]
}